total fruits shown, first grid touch spot, second grid touch spot, etc
9, 7, 4
9, 8, 6
9, 3, 5, 1
9, 6, 3
9, 1, 9
9, 5, 8, 4
9, 9, 1, 2
9, 2, 7, 6, 3
9, 4, 5, 9
9, 8, 4, 3
9, 6, 8, 7, 2
9, 4, 9, 8, 6
9, 9, 6, 5, 7, 8
9, 1, 2, 9, 5
9, 7, 3, 2, 1
